{
	"info": {
		"name": "CPA",
		"_postman_id": "7734dc08-aede-407f-b6a9-99476c2a6c37",
		"description": "",
		"schema": "https://schema.getpostman.com/json/collection/v2.1.0/collection.json"
	},
	"item": [
		{
			"name": "http://localhost:8000/rest/questionario",
			"request": {
				"method": "GET",
				"header": [],
				"body": {},
				"url": {
					"raw": "http://localhost:8000/rest/questionario/tipo/F",
					"protocol": "http",
					"host": [
						"localhost"
					],
					"port": "8000",
					"path": [
						"rest",
						"questionario",
						"tipo",
						"F"
					]
				},
				"description": ""
			},
			"response": []
		},
		{
			"name": "http://localhost:8000/rest/tipousuario",
			"request": {
				"method": "GET",
				"header": [],
				"body": {},
				"url": {
					"raw": "http://localhost:8000/rest/tipousuario",
					"protocol": "http",
					"host": [
						"localhost"
					],
					"port": "8000",
					"path": [
						"rest",
						"tipousuario"
					]
				},
				"description": ""
			},
			"response": []
		},
		{
			"name": "http://localhost:8000/rest/usuario",
			"request": {
				"method": "GET",
				"header": [],
				"body": {},
				"url": {
					"raw": "http://localhost:8000/rest/usuario",
					"protocol": "http",
					"host": [
						"localhost"
					],
					"port": "8000",
					"path": [
						"rest",
						"usuario"
					]
				},
				"description": ""
			},
			"response": []
		},
		{
			"name": "http://localhost:8000/rest/complemento",
			"request": {
				"method": "GET",
				"header": [],
				"body": {},
				"url": {
					"raw": "http://localhost:8000/rest/complemento",
					"protocol": "http",
					"host": [
						"localhost"
					],
					"port": "8000",
					"path": [
						"rest",
						"complemento"
					]
				},
				"description": ""
			},
			"response": []
		},
		{
			"name": "http://localhost:8000/rest/pergunta",
			"request": {
				"method": "GET",
				"header": [],
				"body": {},
				"url": {
					"raw": "http://localhost:8000/rest/pergunta",
					"protocol": "http",
					"host": [
						"localhost"
					],
					"port": "8000",
					"path": [
						"rest",
						"pergunta"
					]
				},
				"description": ""
			},
			"response": []
		},
		{
			"name": "http://localhost:8000/rest/questionario",
			"request": {
				"method": "GET",
				"header": [],
				"body": {},
				"url": {
					"raw": "http://localhost:8000/rest/questionario",
					"protocol": "http",
					"host": [
						"localhost"
					],
					"port": "8000",
					"path": [
						"rest",
						"questionario"
					]
				},
				"description": ""
			},
			"response": []
		},
		{
			"name": "http://localhost:8000/rest/questionario/3/tipo/perguntas",
			"request": {
				"method": "GET",
				"header": [],
				"body": {},
				"url": {
					"raw": "http://localhost:8000/rest/questionario/3/tipo/perguntas",
					"protocol": "http",
					"host": [
						"localhost"
					],
					"port": "8000",
					"path": [
						"rest",
						"questionario",
						"3",
						"tipo",
						"perguntas"
					]
				},
				"description": ""
			},
			"response": []
		}
	]
}